^T:\C#\VISUAL\PLANING\PLANING\STDAFX.CPP
T:\C#\VISUAL\PLANING\PLANING\DEBUG\PLANING.PCH
T:\C#\VISUAL\PLANING\PLANING\DEBUG\VC140.PDB
T:\C#\VISUAL\PLANING\PLANING\DEBUG\VC140.IDB
T:\C#\VISUAL\PLANING\PLANING\DEBUG\STDAFX.OBJ
^T:\C#\VISUAL\PLANING\PLANING\PLANING.CPP
T:\C#\VISUAL\PLANING\PLANING\DEBUG\VC140.PDB
T:\C#\VISUAL\PLANING\PLANING\DEBUG\VC140.IDB
T:\C#\VISUAL\PLANING\PLANING\DEBUG\PLANING.OBJ
