^T:\C#\VISUAL\PLANING\PLANING\DEBUG\PLANING.OBJ|T:\C#\VISUAL\PLANING\PLANING\DEBUG\STDAFX.OBJ
T:\C#\VISUAL\PLANING\DEBUG\PLANING.ILK
T:\C#\VISUAL\PLANING\DEBUG\PLANING.EXE
T:\C#\VISUAL\PLANING\DEBUG\PLANING.PDB
